asgiref==3.3.1
astroid==2.5.1
attrs==20.3.0
autobahn==21.3.1
Automat==20.2.0
bson==0.5.8
certifi==2020.12.5
cffi==1.14.5
channels==3.0.3
chardet==4.0.0
colorama==0.4.4
constantly==15.1.0
cryptography==3.4.6
daphne==3.0.1
dataclasses==0.6
Django==2.2.19
django-cors-headers==3.7.0
django-extensions==3.1.1
django-filter==2.2.0
django-jsonfield==1.4.1
django-pandas==0.6.2
django-phone-field==1.8.1
django-rest-multiple-models==2.1.3
django-taggit==1.3.0
djangorestframework==3.11.0
djangorestframework-simplejwt==4.5.0
djangotoolbox==1.8.0
djongo==1.3.1
et-xmlfile==1.0.1
hyperlink==21.0.0
idna==2.10
importlib==1.0.4
incremental==21.3.0
isort==5.7.0
lazy-object-proxy==1.5.2
Markdown==3.2.1
mccabe==0.6.1
numpy==1.18.5
openpyxl==3.0.7
pandas==1.0.5
pdfkit==0.6.1
Pillow==6.0.0
psycopg2==2.8.6
pyasn1==0.4.8
pyasn1-modules==0.2.8
pycparser==2.20
PyJWT==1.7.1
pylint==2.7.2
pymongo==3.11.3
pyOpenSSL==20.0.1
python-dateutil==2.8.1
python-resources==0.3
pytz==2021.1
redis==3.5.3
requests==2.25.1
service-identity==18.1.0
six==1.15.0
sqlparse==0.2.4
toml==0.10.2
Twisted==21.2.0
twisted-iocpsupport==1.0.1
txaio==21.2.1
typed-ast==1.4.2
urllib3==1.26.4
wkhtmltopdf==0.2
wrapt==1.12.1
xlrd==1.2.0
zope.interface==5.2.0
